{
  "appenders": [
    {
      "type": "console",
      "layout": {
        "type": "coloured",
        "pattern": "%d{ISO8601} %-5p %c - %m"
      }
    }
  ],
  "levels": {
    "[all]": "DEBUG"
  }
}