[
  {
    "name": "point_0",
    "coordinates": {
      "x": 1,
      "y": 1
    }
  },
  {
    "name": "point_1",
    "coordinates": {
      "x": 1,
      "y": 2
    }
  },
  {
    "name": "point_2",
    "coordinates": {
      "x": 1,
      "y": 3
    }
  },
  {
    "name": "point_3",
    "coordinates": {
      "x": 1,
      "y": 4
    }
  },
  {
    "name": "point_4",
    "coordinates": {
      "x": 1,
      "y": 5
    }
  },
  {
    "name": "point_5",
    "coordinates": {
      "x": 1,
      "y": 6
    }
  },
  {
    "name": "point_6",
    "coordinates": {
      "x": 1,
      "y": 7
    }
  },
  {
    "name": "point_7",
    "coordinates": {
      "x": 6,
      "y": 2
    }
  },
  {
    "name": "point_8",
    "coordinates": {
      "x": 8,
      "y": 27
    }
  },
  {
    "name": "point_9",
    "coordinates": {
      "x": 11,
      "y": 27
    }
  },
  {
    "name": "point_10",
    "coordinates": {
      "x": 4,
      "y": 1
    }
  },
  {
    "name": "point_11",
    "coordinates": {
      "x": 19,
      "y": 9
    }
  },
  {
    "name": "point_12",
    "coordinates": {
      "x": 97,
      "y": 55
    }
  },
  {
    "name": "point_13",
    "coordinates": {
      "x": -14,
      "y": -2
    }
  },
  {
    "name": "point_14",
    "coordinates": {
      "x": 1,
      "y": -2
    }
  },
  {
    "name": "point_15",
    "coordinates": {
      "x": 18,
      "y": -23
    }
  },
  {
    "name": "point_16",
    "coordinates": {
      "x": -67,
      "y": 13
    }
  },
  {
    "name": "point_17",
    "coordinates": {
      "x": 88,
      "y": 27
    }
  },
  {
    "name": "point_18",
    "coordinates": {
      "x": 99,
      "y": 21
    }
  },
  {
    "name": "point_19",
    "coordinates": {
      "x": 1,
      "y": 105
    }
  }
]